@startuml
hide empty members
set namespaceSeparator none

class "/login" {
}

class "POST /login" {
.. body ..
{field} LoginRequest <b>LoginRequest</b>
.. responses ..
200: {field} LoginResponse 
401: {field} Unauthorized 
}

"POST /login" ..> LoginRequest
"POST /login" ..> LoginResponse
"POST /login" ..> Unauthorized

"/login" ..> "POST /login"


class LoginRequest {
    {field} string <b>repositoryAccessId</b>
    {field} string <b>repositoryAccessKey</b>
}



class LoginResponse {
    {field} string <b>token</b>
}



class Error {
    {field} number <b>timestamp</b>
    {field} integer <b>status</b>
    {field} string <b>error</b>
    {field} string <b>message</b>
    {field} string <b>path</b>
    {field} string exception
}


@enduml
