{
    "dbhost" : "quore-cluster.cluster-cmwtqs8fk9hg.us-east-1.rds.amazonaws.com",
    "dbname" : "quoreapi",
    "dbuser" :"root",
    "dbpassword" :"Paiva#3815",
    "sntConnectUrl": "https://pms-dev.stayntouch.com/connect/",
    "sntAccessToken": "044751cbdfad7717c6d374833c36275310bf1dfb448e951a3c8efc6bada30bdc",
    "apiSignerId": "200"
}
